
$BCm0U$9$Y$-E@(B(cont.)

$B%i%$%;%s%9$KCm0U(B
Debian Free Software Guildelines
$B%=!<%9$r:FG[I[$7$F$b9=$o$J$$$N$+(B?
$BMxMQ$,<+M3$+(B? $B1DMxL\E*$NMxMQ$O5v$5$l$F$$$k$N$+(B?
$B2~JQ$,<+M3$+(B?
($B:F(B)$BG[I[$,<+M3$+(B? $B1DMxL\E*$NG[I[$O5v$5$l$F$$$k$N$+(B?
 $B2~JQJ*$NG[I[$O$I$&$+(B?

remove$B!"(Bpurge $B$r$A$c$s$H9M$($k(B
purge $B$7$?$i$=$N%Q%C%1!<%8$rF~$l$kA0$N>uBV$K(B

$B8x3+$7$h$&(B
$B8x3+$7$?J}$,$*$*$/$N?M$K$_$F$b$i$($k(B
$B$_$s$J9,$;$K(B
