
Debian$B$N%a%j%C%H(B

$B%U%j!<(B
$B2~JQ!&:FG[I[!&>&MQMxMQ!&HNGd!&(Betc...
$B6/NO$J%Q%C%1!<%84IM}(B
$B0MB8(B (Depends)
$B?d>)(B (Recommends)
$BDs0F(B (Suggests)
$B>WFM(B (Conflicts)
$BCV49(B (Replaces)
$BDs6!(B (Provides)
$B:F5/F0ITMW(B
$B%*!<%W%s$J%P%0DI@W%7%9%F%`(B
$B$9$_$d$+$J=$@5(B

