
Debian GNU/Linux $B$H$O(B

$B40A4$K%U%j!<$J(B Linux $B%G%#%9%H%j%S%e!<%7%g%s(B
$B2~JQ!"J#@=!":FG[I[$N<+M3(B
Debian Project (1993-)
$B@_N);~$K(B GNU Project $B$N;Y1g(B (1994-1995)
$B@$3&E*$J%\%i%s%F%#%"%0%k!<%W(B ($B3+H/%a%s%P!<$OLs(B 600 $B?M(B)
$B%U%j!<%=%U%H%&%'%"$K$h$k(B OS $B%G%#%9%H%j%S%e!<%7%g%s$NDs6!(B
Open Source $B$N85AD(B (DFSG)
$B87L)$J%]%j%7!<$HI8=`2=(B
$B%^%k%A%"!<%-%F%/%A%c(B
i386, Alpha, ARM, 68k, MIPS, PowerPC, Sparc, UltraSparc
$B%^%k%A%+!<%M%k(B
Linux, Hurd
