
Debian $B$N%^%$%k%9%H!<%s(B

1.1 buzz (1996.6)
474 packages (i386 $B$N%5%]!<%H(B)
$B:G=i$N(B Debian $B8x<0%j%j!<%9(B
1.2 rex (1996.12)
848 packages
1.3 bo (1997.7)
974 packages
2.0 hamm (1998.7)
1,500 packages
m68k $B$N@5<0%5%]!<%H(B
libc6 (glibc2) $B$X$N0\9T(B
2.1 slink (1999.3)
2,250 packages
Alpha $B$H(B Sparc $B%"!<%-%F%/%A%c$N@5<0%5%]!<%H(B
apt (Advanced Package Tool) $B$NF3F~(B
2.2 potato (2000.3?)
4,000+ packages
glibc2.1 $B$X$N0\9T(B
PowerPC $B$H(B ARM $B$N@5<0%5%]!<%H(B ($BM=Dj(B)
3.0 woody (?)
