
rules $B%U%!%$%k(B

$B%Q%C%1!<%8$r:n@.$9$k<j=g$r5-=R$7$?(B Makefile

#!/usr/bin/make -f
# Sample debian/rules that uses debhelper.
# GNU copyright 1997 to 1999 by Joey Hess.

# Uncomment this to turn on verbose mode.
#export DH_VERBOSE=1
 ...

debhelper $B$K$h$j9bEY$J<+F02=(B
