$B%Q%C%1!<%84IM}(B
$B@_Dj%9%/%j%W%H(B

$B%$%s%9%H!<%k$9$kA0(B
    deb:  preinst
    rpm:  %{PREIN}
$B%U%!%$%k$rE83+$7$?8e(B
    deb:  postinst
    rpm: %{POSTIN}
$B%"%s%$%s%9%H!<%k$9$kA0(B
    deb: prerm
    rpm: %{PREUN}
$B%U%!%$%k$r:o=|$7$?8e(B
    deb:  postrm
    rpm: %{POSTUN}

